Food Safety in Africa
…
library(rnaturalearth)

library(rnaturalearthdata)

library(rgeos)

library(ggspatial)

library(lwgeom)

3 - Data Cleaning

3.2 - Load the data first, and reformating features

## # A tibble: 518 x 153
##    `ID number` `Both lab` `# Country/proj Training Category `A (MY FS), B (
##    <chr>            <dbl>            <dbl>    <dbl> <fct>    <chr>           
##  1 AESA-1               0                4        0 1        A               
##  2 AfDB-1               2                5        2 2        B               
##  3 AfDB-2               0                1        0 2        B               
##  4 AfDB-3               0                1        1 2        B               
##  5 AfDB-4               0                1        1 2        B               
##  6 AfDB-5               0                0        0 2        B               
##  7 AfDB-6               0                1        1 2        B               
##  8 AfDB-7               2                1        2 2        B               
##  9 AgResults-1          0                1        1 1        A               
## 10 ASTF-1               0                8        1 2        B               
## #  with 508 more rows, and 147 more variables: A1_DonorName <chr>,
## #   A2_Agency <chr>, A3_DonorCat <fct>, Program <chr>, A4_Project <chr>,
## #   A5_Statement <chr>, A6_Keywords <chr>, A7_ImplOrg <chr>, A8_ImplCat <fct>,
## #   A9_ANGOLA <dbl>, A9_BENIN <dbl>, A9_BOTSWANA <dbl>, `A9_BURKINA
## #   FASO` <dbl>, A9_BURUNDI <dbl>, `A9_CABO VERDE` <dbl>, A9_CAMEROON <dbl>,
## #   A9_CAR <dbl>, A9_CHAD <dbl>, A9_COMOROS <dbl>, A9_CONGO <dbl>, `A9_COTE
## #   D'IVOIRE` <dbl>, A9_DRC <dbl>, A9_DJIBOUTI <dbl>, `A9_EQ GUINEA` <dbl>,
## #   A9_ERITREA <dbl>, A9_ETHIOPIA <dbl>, A9_GABON <dbl>, A9_GAMBIA <dbl>,
## #   A9_GHANA <dbl>, A9_GUINEA <dbl>, `A9_GUINEA-BISSAU` <dbl>, A9_KENYA <dbl>,
…
3 - Data Cleaning

3.3 - Reshaping with multiple columns

pivot_longer for each part.(A9, B4, C1, C3, D2, D4, D6, Running in)

filter( != 0)

list(factor())

use pipe(%>%) to make connections.

## # A tibble: 171,379 x 55
##    `ID number` `Both lab` `# Country/proj Training Category `A (MY FS), B (
##    <chr>            <dbl>            <dbl>    <dbl> <fct>    <chr>           
##  1 AESA-1               0                4        0 1        A               
##  2 AESA-1               0                4        0 1        A               
##  3 AESA-1               0                4        0 1        A               
##  4 AESA-1               0                4        0 1        A               
##  5 AESA-1               0                4        0 1        A               
##  6 AESA-1               0                4        0 1        A               
##  7 AESA-1               0                4        0 1        A               
##  8 AESA-1               0                4        0 1        A               
##  9 AESA-1               0                4        0 1        A               
## 10 AESA-1               0                4        0 1        A               
## #  with 171,369 more rows, and 49 more variables: A1_DonorName <chr>,
## #   A2_Agency <chr>, A3_DonorCat <fct>, Program <chr>, A4_Project <chr>,
## #   A5_Statement <chr>, A6_Keywords <chr>, A7_ImplOrg <chr>, A8_ImplCat <fct>,
## #   A9a_Level <dbl>, A10_REC <dbl>, A10_REC2 <dbl>, A11_YearInit <dbl>,
## #   A12_YearEnd <dbl>, A13_TimeFrame <dbl>, A14_LimitedRequest <dbl>,
## #   A15_OtherCharacteristics <dbl>, `B1_Project focus` <fct>,
## #   B2_Purpose_P <dbl>, B3_Purpose_S <dbl>, B5_MarketFocus <dbl>,
## #   B6_InformalMarkets <dbl>, C2_HazardName <chr>, C4_CommodityName <chr>,
## #   C5_ValueChain <chr>, D1_VCParticipantsNames <chr>, D3_DonorPartNames <chr>,
…
5.2 - Data Visualization

5.2.1 - Drawing Africa maps programmatically

Obviously, the Africa map is easy to let readers know the association between the number of aid programs and each country.

## # A tibble: 24 x 2
##    Country                          name                
##    <chr>                            <chr>               
##  1 ALGERIA                          Algeria             
##  2 CABO VERDE                       <NA>                
##  3 CAPE VERDE                       Cape Verde          
##  4 CAR                              <NA>                
##  5 CENTRAL AFRICAN REPUBLIC         Central African Rep.
##  6 CONGO                            <NA>                
##  7 COTE D'IVOIRE                    <NA>                
##  8 DEMOCRATIC REPUBLIC OF THE CONGO Dem. Rep. Congo     
##  9 DRC                              <NA>                
## 10 EGYPT                            Egypt               
## #  with 14 more rows
…
6.2 - Multiple regression on the hypothesis:

## # A tibble: 131 x 4
## # Groups:   Country [48]
##    Country      A13_TimeFrame Budget Number_of_project
##    <chr>                <dbl>  <dbl>             <dbl>
##  1 ANGOLA                   1  11.1              0.693
##  2 ANGOLA                  NA  16.6              1.95 
##  3 BENIN                    1   9.29             1.10 
##  4 BENIN                   NA  18.3              3.43 
##  5 BOTSWANA                 2  11.4              0    
##  6 BOTSWANA                NA  16.6              2.40 
##  7 BURKINA FASO             1   8.57             0.693
##  8 BURKINA FASO             2  11.6              1.39 
##  9 BURKINA FASO            NA  18.5              3.81 
## 10 BURUNDI                  1   8.92             1.39 
## #  with 121 more rows
…
